
                   Fri Sep-18-2020 14:08:11             Page 1
 (FS30i/FS0i/PMi)  Macro Compiler (Pre) V03.0           header.html    
                   Select Series : PMi

---------- Compile Parameter -----------------------------------------

        -PM 

---------- Program ---------------------------------------------------


  S-Line G-Line
     1   0001      <nav class="navbar navbar-default">
     2   0002          <div class="container-fluid">
     3   0003              <div class="navbar-header">
     4   0004                  <a href="#" class="navbar-brand">Recipe Book</a>
     5   0005              </div>
     6                     
     7   0006              <div class="collapse navbar-collapse">
     8   0007                  <ul class="nav navbar-nav">
     9   0008                      <li><a href="#">Recipes</a></li>
    10   0009                      <li><a href="#">ShoppingList</a></li>
    11   0010                  </ul>
    12   0011                  <ul class="nav navbar-nav navbar-right">
    13   0012                      <li class="dropdown">
    14   0013                          <a href="#" class="dropdown-toggle" role="button">Manage <span class="caret"></span></a>
    15   0014                          <ul class="dropdown-menu">
    16   0015                              <li><a href="#">Save Data</a></li>
    17   0016                              <li><a href="#">Fetch Data</a></li>
    18   0017                          </ul>
    19   0018                      </li>
    20   0019                  </ul>
    21   0020              </div>
    22   0021          </div>
    23   0022      </nav>
